module codeberg.org/video-prize-ranch/rimgo

go 1.17

require (
	github.com/dustin/go-humanize v1.0.0
	github.com/gofiber/fiber/v2 v2.36.0
	github.com/gofiber/template v1.6.30
	github.com/joho/godotenv v1.4.0
	github.com/patrickmn/go-cache v2.1.0+incompatible
	github.com/tidwall/gjson v1.14.1
)

require (
	github.com/andybalholm/brotli v1.0.4 // indirect
	github.com/aymerick/raymond v2.0.2+incompatible // indirect
	github.com/klauspost/compress v1.15.9 // indirect
	github.com/tidwall/match v1.1.1 // indirect
	github.com/tidwall/pretty v1.2.0 // indirect
	github.com/valyala/bytebufferpool v1.0.0 // indirect
	github.com/valyala/fasthttp v1.38.0 // indirect
	github.com/valyala/tcplisten v1.0.0 // indirect
	golang.org/x/sys v0.0.0-20220804214406-8e32c043e418 // indirect
)
